{
    "de.appplant.cordova.plugin.local-notification": {
        "source": {
            "type": "git",
            "url": "https://github.com/katzer/cordova-plugin-local-notifications",
            "subdir": "."
        }
    },
    "org.apache.cordova.device": {
        "source": {
            "type": "registry",
            "id": "org.apache.cordova.device"
        }
    },
    "android.support.v4": {
        "source": {
            "type": "registry",
            "id": "android.support.v4"
        }
    }
}